<svg xmlns="http://www.w3.org/2000/svg" width="53.401" height="52.221" viewBox="0 0 53.401 52.221">
  <path id="university" d="M77.978,51.228H75.736V47.693a1.16,1.16,0,0,0-1.16-1.16H72.636V24.608h1.941a1.16,1.16,0,0,0,1.16-1.16V18.754a1.16,1.16,0,0,0-1.16-1.16H72.636v-.647a1.16,1.16,0,0,0-.611-1.022L56.2,7.434c-1.631-.775-3.246-2.121-5.568-.961L32.85,15.925a1.159,1.159,0,0,0-.611,1.022v.647H30.3a1.16,1.16,0,0,0-1.16,1.16v4.695a1.16,1.16,0,0,0,1.16,1.16h1.941V46.533H30.3a1.16,1.16,0,0,0-1.16,1.16v3.535H26.9a1.16,1.16,0,0,0-1.16,1.16v4.695a1.16,1.16,0,0,0,1.16,1.16H77.978a1.16,1.16,0,0,0,1.16-1.16V52.387a1.159,1.159,0,0,0-1.159-1.16Zm-7.662-4.695H67.626V24.608h2.691Zm-13.981,0V24.608h3.493V46.533Zm-11.29,0V24.608h3.493V46.533ZM39.568,24.608h3.159V46.533H39.568Zm11.29,0h3.159V46.533H50.858Zm11.29,0h3.159V46.533H62.148ZM52.437,8.047,70.23,17.594H34.644ZM31.458,19.913H73.417v2.375H31.458Zm3.1,4.695h2.691V46.533H34.558Zm-3.1,24.244H73.417v2.375H31.458Zm45.361,7.07H28.056V53.547H76.818v2.375Z" transform="translate(-25.737 -6.021)" fill="#e54428"/>
</svg>
