<?xml version="1.0" encoding="utf-8"?>
<!-- Generator: Adobe Illustrator 24.3.0, SVG Export Plug-In . SVG Version: 6.00 Build 0)  -->
<svg version="1.1" id="Layer_1" xmlns="http://www.w3.org/2000/svg" xmlns:xlink="http://www.w3.org/1999/xlink" x="0px" y="0px"
	 viewBox="0 0 392.6 306.2" style="enable-background:new 0 0 392.6 306.2;" xml:space="preserve">
<image style="overflow:visible;" width="512" height="512" xlink:href="3 heads .png"  transform="matrix(0.678 0 0 0.678 22.744 -20.4686)">
</image>
</svg>
