<?xml version="1.0" encoding="utf-8"?>
<!-- Generator: Adobe Illustrator 25.3.1, SVG Export Plug-In . SVG Version: 6.00 Build 0)  -->
<svg version="1.1" id="Layer_1" xmlns="http://www.w3.org/2000/svg" xmlns:xlink="http://www.w3.org/1999/xlink" x="0px" y="0px"
	 viewBox="0 0 7.6 14.6" style="enable-background:new 0 0 7.6 14.6;" xml:space="preserve">
<style type="text/css">
	.st0{fill:#223167;}
</style>
<path id="facebook_icon" class="st0" d="M4.9,14.6V7.9h2.2l0.3-2.6H4.9V3.7c0-0.8,0.2-1.3,1.3-1.3h1.4V0.1C6.9,0,6.3,0,5.6,0
	c-2,0-3.3,1.2-3.3,3.4v1.9H0v2.6h2.2v6.7H4.9L4.9,14.6z"/>
</svg>
