<svg id="call" xmlns="http://www.w3.org/2000/svg" width="20.001" height="20.001" viewBox="0 0 20.001 20.001">
  <g id="Group_41" data-name="Group 41">
    <path id="Path_14" data-name="Path 14" d="M18.4,13.128a11.356,11.356,0,0,1-3.566-.568,1.63,1.63,0,0,0-1.585.334L11,14.592A12.428,12.428,0,0,1,5.408,9.005l1.648-2.19a1.617,1.617,0,0,0,.4-1.638A11.373,11.373,0,0,1,6.883,1.6,1.607,1.607,0,0,0,5.278,0H1.6A1.607,1.607,0,0,0,0,1.6,18.417,18.417,0,0,0,18.4,20,1.607,1.607,0,0,0,20,18.4V14.733A1.607,1.607,0,0,0,18.4,13.128Z" fill="#223167"/>
  </g>
</svg>
